<?xml version="1.0" encoding="UTF-8" standalone="no"?>
<svg width="162px" height="151px" viewBox="0 0 162 151" version="1.1" xmlns="http://www.w3.org/2000/svg" xmlns:xlink="http://www.w3.org/1999/xlink" xmlns:sketch="http://www.bohemiancoding.com/sketch/ns">
    <!-- Generator: Sketch 3.5.1 (25234) - http://www.bohemiancoding.com/sketch -->
    <title>Share Link Icon</title>
    <desc>Created with Sketch.</desc>
    <defs>
        <linearGradient x1="60.6517826%" y1="25.1504212%" x2="50%" y2="100%" id="linearGradient-1">
            <stop stop-color="#9154F0" offset="0%"></stop>
            <stop stop-color="#208BD2" offset="100%"></stop>
        </linearGradient>
    </defs>
    <g id="Page-1" stroke="none" stroke-width="1" fill="none" fill-rule="evenodd" sketch:type="MSPage">
        <g id="Zinly-v0.3---Landing-Page" sketch:type="MSArtboardGroup" transform="translate(-639.000000, -746.000000)" fill="url(#linearGradient-1)" opacity="0.85">
            <g id="Share-Link-Icon" sketch:type="MSLayerGroup" transform="translate(639.000000, 746.000000)">
                <path d="M43.03125,151 C42.373125,151 41.725125,150.7433 41.2416562,150.262617 L16.6708125,125.833333 L12.65625,125.833333 C5.67759375,125.833333 0,120.18845 0,113.25 L0,32.7166667 C0,25.7782167 5.67759375,20.1333333 12.65625,20.1333333 L55.6875,20.1333333 L55.6875,25.1666667 L12.65625,25.1666667 C8.4695625,25.1666667 5.0625,28.5541 5.0625,32.7166667 L5.0625,113.25 C5.0625,117.412567 8.4695625,120.8 12.65625,120.8 L17.71875,120.8 C18.3895313,120.8 19.035,121.06425 19.5083437,121.537383 L40.5,142.4081 L40.5,123.316667 C40.5,121.927467 41.634,120.8 43.03125,120.8 L88.59375,120.8 C92.7804375,120.8 96.1875,117.412567 96.1875,113.25 L96.1875,88.0833333 C96.1875,86.6941333 97.3215,85.5666667 98.71875,85.5666667 L111.15225,85.5666667 L96.3925313,51.3249 C96.2558437,51.0128333 96.1875,50.6730833 96.1875,50.3333333 L96.1875,32.7166667 C96.1875,28.5541 92.7804375,25.1666667 88.59375,25.1666667 L70.875,25.1666667 L70.875,20.1333333 L88.59375,20.1333333 C95.5724063,20.1333333 101.25,25.7782167 101.25,32.7166667 L101.25,49.8174167 L116.232469,84.5751 C116.369156,84.8871667 116.4375,85.2269167 116.4375,85.5666667 L116.4375,88.0833333 C116.4375,89.4725333 115.3035,90.6 113.90625,90.6 L101.25,90.6 L101.25,113.25 C101.25,120.18845 95.5724063,125.833333 88.59375,125.833333 L45.5625,125.833333 L45.5625,148.483333 C45.5625,149.500067 44.944875,150.41865 44.0007187,150.808733 C43.6868438,150.937083 43.3577813,151 43.03125,151 Z M118.96875,130.866667 C118.642219,130.866667 118.313156,130.80375 117.999281,130.6754 C117.055125,130.285317 116.4375,129.366733 116.4375,128.35 L116.4375,105.7 L106.3125,105.7 L106.3125,100.666667 L118.96875,100.666667 C120.366,100.666667 121.5,101.794133 121.5,103.183333 L121.5,122.274767 L142.491656,101.40405 C142.965,100.930917 143.610469,100.666667 144.28125,100.666667 L149.34375,100.666667 C153.530438,100.666667 156.9375,97.2792333 156.9375,93.1166667 L156.9375,12.5833333 C156.9375,8.42076667 153.530438,5.03333333 149.34375,5.03333333 L73.40625,5.03333333 C69.2195625,5.03333333 65.8125,8.42076667 65.8125,12.5833333 L65.8125,35.2333333 C65.8125,35.5730833 65.7441563,35.9128333 65.6074688,36.2249 L50.84775,70.4666667 L63.28125,70.4666667 C64.6785,70.4666667 65.8125,71.5941333 65.8125,72.9833333 L65.8125,93.1166667 C65.8125,97.2792333 69.2195625,100.666667 73.40625,100.666667 L91.125,100.666667 L91.125,105.7 L73.40625,105.7 C66.4275937,105.7 60.75,100.055117 60.75,93.1166667 L60.75,75.5 L48.09375,75.5 C46.6965,75.5 45.5625,74.3725333 45.5625,72.9833333 L45.5625,70.4666667 C45.5625,70.1269167 45.6308438,69.7871667 45.7675312,69.4751 L60.75,34.7174167 L60.75,12.5833333 C60.75,5.64488333 66.4275937,0 73.40625,0 L149.34375,0 C156.322406,0 162,5.64488333 162,12.5833333 L162,93.1166667 C162,100.055117 156.322406,105.7 149.34375,105.7 L145.329187,105.7 L120.758344,130.129283 C120.274875,130.609967 119.626875,130.866667 118.96875,130.866667 Z M146.8125,25.1666667 L111.375,25.1666667 L111.375,20.1333333 L146.8125,20.1333333 L146.8125,25.1666667 Z M146.8125,35.2333333 L111.375,35.2333333 L111.375,30.2 L146.8125,30.2 L146.8125,35.2333333 Z M136.6875,45.3 L111.375,45.3 L111.375,40.2666667 L136.6875,40.2666667 L136.6875,45.3 Z M45.5625,40.2666667 L15.1875,40.2666667 L15.1875,35.2333333 L45.5625,35.2333333 L45.5625,40.2666667 Z M45.5625,50.3333333 L15.1875,50.3333333 L15.1875,45.3 L45.5625,45.3 L45.5625,50.3333333 Z M35.4375,60.4 L15.1875,60.4 L15.1875,55.3666667 L35.4375,55.3666667 L35.4375,60.4 Z" id="Fill-1" sketch:type="MSShapeGroup"></path>
            </g>
        </g>
    </g>
</svg>