<?xml version="1.0" encoding="UTF-8" standalone="no"?>
<svg width="21px" height="33px" viewBox="0 0 21 33" version="1.1" xmlns="http://www.w3.org/2000/svg" xmlns:xlink="http://www.w3.org/1999/xlink" xmlns:sketch="http://www.bohemiancoding.com/sketch/ns">
    <!-- Generator: sketchtool 3.4 (381) - http://www.bohemiancoding.com/sketch -->
    <title>Bitcoin Icon</title>
    <desc>Created with sketchtool.</desc>
    <defs></defs>
    <g id="Page-1" stroke="none" stroke-width="1" fill="none" fill-rule="evenodd" sketch:type="MSPage">
        <g id="How-it-works" sketch:type="MSArtboardGroup" transform="translate(-395.000000, -580.000000)" fill="#FFFFFF">
            <g id="Bitcoin-Icon" sketch:type="MSLayerGroup" transform="translate(395.000000, 580.000000)">
                <g id="Group" sketch:type="MSShapeGroup">
                    <path d="M17.3204062,15.6950588 C18.6375,14.6215882 19.5162188,13.0142941 19.5162188,10.7185294 C19.5162188,6.32888235 16.109625,4.83935294 13.7766562,4.57729412 C13.7766562,4.56111765 13.78125,4.54558824 13.78125,4.52941176 L13.78125,1.29411765 C13.78125,0.579764706 13.19325,0 12.46875,0 C11.74425,0 11.15625,0.579764706 11.15625,1.29411765 L11.15625,4.52941176 L8.53125,4.52941176 L8.53125,1.29411765 C8.53125,0.579764706 7.94325,0 7.21875,0 C6.49425,0 5.90625,0.579764706 5.90625,1.29411765 L5.90625,4.52941176 L3.9375,4.52941176 L1.3125,4.52941176 C0.588,4.52941176 0,5.10917647 0,5.82352941 C0,6.53788235 0.588,7.11764706 1.3125,7.11764706 L2.625,7.11764706 L2.625,16.1764706 L2.625,25.8823529 L1.3125,25.8823529 C0.588,25.8823529 0,26.4621176 0,27.1764706 C0,27.8908235 0.588,28.4705882 1.3125,28.4705882 L3.9375,28.4705882 L5.90625,28.4705882 L5.90625,31.7058824 C5.90625,32.4202353 6.49425,33 7.21875,33 C7.94325,33 8.53125,32.4202353 8.53125,31.7058824 L8.53125,28.4705882 L11.15625,28.4705882 L11.15625,31.7058824 C11.15625,32.4202353 11.74425,33 12.46875,33 C13.19325,33 13.78125,32.4202353 13.78125,31.7058824 L13.78125,28.4705882 C13.78125,28.4401765 13.7746875,28.4123529 13.7720625,28.3825882 C17.2875937,27.9607059 20.8123125,25.9690588 20.8123125,21.3833529 C20.8123125,18.2981765 19.1592187,16.5808824 17.3204062,15.6950588 L17.3204062,15.6950588 Z M13.0291875,7.11764706 C13.673625,7.11764706 16.8905625,7.29170588 16.8905625,10.7185294 C16.8905625,14.3414118 13.5594375,14.8823529 11.573625,14.8823529 L5.25,14.8823529 L5.25,7.11764706 L13.0291875,7.11764706 L13.0291875,7.11764706 Z M12.2974687,25.8823529 L5.25,25.8823529 L5.25,17.4705882 L11.5742812,17.4705882 L13.8514687,17.4705882 C14.2950937,17.4770588 18.1879687,17.6388235 18.1879687,21.3833529 C18.1873125,25.5581765 13.6795312,25.8823529 12.2974687,25.8823529 L12.2974687,25.8823529 Z" id="Shape"></path>
                </g>
            </g>
        </g>
    </g>
</svg>