<?xml version="1.0" encoding="UTF-8" standalone="no"?>
<svg width="92px" height="183px" viewBox="0 0 92 183" version="1.1" xmlns="http://www.w3.org/2000/svg" xmlns:xlink="http://www.w3.org/1999/xlink" xmlns:sketch="http://www.bohemiancoding.com/sketch/ns">
    <!-- Generator: sketchtool 3.4 (381) - http://www.bohemiancoding.com/sketch -->
    <title>Half Circle</title>
    <desc>Created with sketchtool.</desc>
    <defs></defs>
    <g id="Page-1" stroke="none" stroke-width="1" fill="none" fill-rule="evenodd" sketch:type="MSPage">
        <g id="How-it-works" sketch:type="MSArtboardGroup" transform="translate(-1064.000000, -414.000000)" stroke="#FFFFFF" stroke-width="2">
            <path d="M1064.5,596 C1114.48177,596 1155,555.48177 1155,505.5 C1155,455.51823 1114.48177,415 1064.5,415" id="Half-Circle" sketch:type="MSShapeGroup"></path>
        </g>
    </g>
</svg>