<?xml version="1.0" encoding="UTF-8" standalone="no"?>
<svg width="27px" height="36px" viewBox="0 0 27 36" version="1.1" xmlns="http://www.w3.org/2000/svg" xmlns:xlink="http://www.w3.org/1999/xlink" xmlns:sketch="http://www.bohemiancoding.com/sketch/ns">
    <!-- Generator: sketchtool 3.4 (381) - http://www.bohemiancoding.com/sketch -->
    <title>Copy Link Icon</title>
    <desc>Created with sketchtool.</desc>
    <defs></defs>
    <g id="Page-1" stroke="none" stroke-width="1" fill="none" fill-rule="evenodd" sketch:type="MSPage">
        <g id="How-it-works" sketch:type="MSArtboardGroup" transform="translate(-707.000000, -398.000000)" fill="#FFFFFF">
            <g id="Copy-Link-Icon" sketch:type="MSLayerGroup" transform="translate(707.000000, 398.000000)">
                <g id="Group-4" sketch:type="MSShapeGroup">
                    <path d="M15.9098625,20.2571437 L15.1077375,19.4550187 L15.568425,18.9937687 C15.7984875,18.7648312 15.7984875,18.3924562 15.568425,18.1623937 C15.338925,17.9328937 14.9671125,17.9328937 14.7376125,18.1623937 L14.276925,18.6242062 L13.4928,17.8400812 L16.7153625,14.6180812 L19.132425,17.0345812 L15.9098625,20.2571437 Z M13.507425,22.6595812 L10.2848625,25.8821437 L7.8678,23.4650812 L11.0903625,20.2430812 L11.873925,21.0266437 L11.412675,21.4878937 C11.183175,21.7173937 11.183175,22.0892062 11.412675,22.3187062 C11.642175,22.5482062 12.01455,22.5482062 12.24405,22.3187062 L12.7053,21.8580187 L13.507425,22.6595812 Z M15.9031125,13.8243937 L12.699675,17.0283937 C12.25755,17.4705187 12.25755,18.1877062 12.699675,18.6298312 L13.484925,19.4150812 L12.6648,20.2352062 L11.8801125,19.4493937 C11.4379875,19.0072687 10.7202375,19.0072687 10.2781125,19.4493937 L7.074675,22.6533937 C6.63255,23.0955187 6.63255,23.8127062 7.074675,24.2548312 L9.4771125,26.6572687 C9.9198,27.0999562 10.6369875,27.0999562 11.0791125,26.6572687 L14.2819875,23.4543937 C14.724675,23.0122687 14.724675,22.2945187 14.2819875,21.8523937 L13.4967375,21.0665812 L14.3163,20.2464562 L15.1021125,21.0322687 C15.5448,21.4749562 16.2619875,21.4749562 16.7041125,21.0322687 L19.9069875,17.8293937 C20.349675,17.3872687 20.349675,16.6695187 19.9069875,16.2273937 L17.5051125,13.8243937 C17.0629875,13.3822687 16.3452375,13.3822687 15.9031125,13.8243937 L15.9031125,13.8243937 Z M25.8751125,34.8748312 L1.1251125,34.8748312 L1.1251125,1.12483125 L18.0001125,1.12483125 L18.0001125,8.99983125 L25.8751125,8.99983125 L25.8751125,34.8748312 Z M19.1251125,1.90164375 L25.0983,7.87483125 L19.1251125,7.87483125 L19.1251125,1.90164375 Z M26.9967375,8.43170625 C26.991675,8.29783125 26.9416125,8.16508125 26.8398,8.06270625 L18.9372375,0.16070625 C18.83655,0.06001875 18.70605,0.01051875 18.5733,0.00433125 C18.569925,0.00320625 18.5626125,-0.000168750001 18.5626125,-0.000168750001 L18.5502375,-0.000168750001 L18.547425,-0.000168750001 L1.1251125,-0.000168750001 C0.50355,-0.000168750001 0.0001125,0.50383125 0.0001125,1.12483125 L0.0001125,34.8748312 C0.0001125,35.4963937 0.50355,35.9998312 1.1251125,35.9998312 L25.8751125,35.9998312 C26.4961125,35.9998312 27.0001125,35.4963937 27.0001125,34.8748312 L27.0001125,8.45308125 L27.0001125,8.44914375 L27.0001125,8.43733125 C27.0001125,8.43733125 26.9973,8.43283125 26.9967375,8.43170625 L26.9967375,8.43170625 Z" id="Fill-2"></path>
                </g>
            </g>
        </g>
    </g>
</svg>