<?xml version="1.0" encoding="UTF-8" standalone="no"?>
<svg width="132px" height="146px" viewBox="0 0 132 146" version="1.1" xmlns="http://www.w3.org/2000/svg" xmlns:xlink="http://www.w3.org/1999/xlink" xmlns:sketch="http://www.bohemiancoding.com/sketch/ns">
    <!-- Generator: Sketch 3.5.1 (25234) - http://www.bohemiancoding.com/sketch -->
    <title>Paste Link Icon</title>
    <desc>Created with Sketch.</desc>
    <defs>
        <linearGradient x1="60.6517826%" y1="25.1504212%" x2="50%" y2="100%" id="linearGradient-1">
            <stop stop-color="#9154F0" offset="0%"></stop>
            <stop stop-color="#208BD2" offset="100%"></stop>
        </linearGradient>
    </defs>
    <g id="Page-1" stroke="none" stroke-width="1" fill="none" fill-rule="evenodd" sketch:type="MSPage">
        <g id="Zinly-v0.3---Landing-Page" sketch:type="MSArtboardGroup" transform="translate(-268.000000, -744.000000)" fill="url(#linearGradient-1)" opacity="0.85">
            <g id="Paste-Link-Icon" sketch:type="MSLayerGroup" transform="translate(268.000000, 744.000000)">
                <path d="M40.9655172,4.5625 L127.448276,4.5625 L127.448276,18.25 L40.9655172,18.25 L40.9655172,4.5625 Z M36.4137931,4.5625 L4.55172414,4.5625 L4.55172414,18.25 L36.4137931,18.25 L36.4137931,4.5625 Z M127.448276,22.8125 L127.448276,141.4375 L4.55172414,141.4375 L4.55172414,22.8125 L127.448276,22.8125 Z M0,146 L132,146 L132,0 L0,0 L0,146 Z M122.896552,82.125 L9.10344828,82.125 L9.10344828,27.375 L122.896552,27.375 L122.896552,82.125 Z M13.6551724,77.5625 L118.344828,77.5625 L118.344828,31.9375 L13.6551724,31.9375 L13.6551724,77.5625 Z M122.896552,109.5 L86.4827586,109.5 L86.4827586,86.6875 L122.896552,86.6875 L122.896552,109.5 Z M91.0344828,104.9375 L118.344828,104.9375 L118.344828,91.25 L91.0344828,91.25 L91.0344828,104.9375 Z M122.896552,136.875 L86.4827586,136.875 L86.4827586,114.0625 L122.896552,114.0625 L122.896552,136.875 Z M91.0344828,132.3125 L118.344828,132.3125 L118.344828,118.625 L91.0344828,118.625 L91.0344828,132.3125 Z M81.9310345,100.375 L9.10344828,100.375 L9.10344828,86.6875 L81.9310345,86.6875 L81.9310345,100.375 Z M13.6551724,95.8125 L77.3793103,95.8125 L77.3793103,91.25 L13.6551724,91.25 L13.6551724,95.8125 Z M13.6551724,13.6875 L9.10344828,13.6875 L9.10344828,9.125 L13.6551724,9.125 L13.6551724,13.6875 Z M22.7586207,13.6875 L18.2068966,13.6875 L18.2068966,9.125 L22.7586207,9.125 L22.7586207,13.6875 Z M31.862069,13.6875 L27.3103448,13.6875 L27.3103448,9.125 L31.862069,9.125 L31.862069,13.6875 Z M122.896552,13.6875 L45.5172414,13.6875 L45.5172414,9.125 L122.896552,9.125 L122.896552,13.6875 Z M81.9310345,118.625 L9.10344828,118.625 L9.10344828,114.0625 L81.9310345,114.0625 L81.9310345,118.625 Z M36.4137931,127.75 L9.10344828,127.75 L9.10344828,123.1875 L36.4137931,123.1875 L36.4137931,127.75 Z M81.9310345,127.75 L40.9655172,127.75 L40.9655172,123.1875 L81.9310345,123.1875 L81.9310345,127.75 Z M50.0689655,109.5 L9.10344828,109.5 L9.10344828,104.9375 L50.0689655,104.9375 L50.0689655,109.5 Z M81.9310345,109.5 L54.6206897,109.5 L54.6206897,104.9375 L81.9310345,104.9375 L81.9310345,109.5 Z M81.9310345,136.875 L9.10344828,136.875 L9.10344828,132.3125 L81.9310345,132.3125 L81.9310345,136.875 Z M57.486,68.4375 L52.3448276,68.4375 L52.3448276,41.0625 L57.486,41.0625 L82.0653103,54.75 L57.486,68.4375 Z M56.8965517,45.9535 L56.8965517,63.5465 L72.6933103,54.75 L56.8965517,45.9535 Z" id="Path" sketch:type="MSShapeGroup"></path>
            </g>
        </g>
    </g>
</svg>